{
  "ambientDependencies": {
    "es6-shim": "github:DefinitelyTyped/DefinitelyTyped/es6-shim/es6-shim.d.ts#7de6c3dd94feaeb21f20054b9f30d5dabc5efabd",
    "jasmine": "github:DefinitelyTyped/DefinitelyTyped/jasmine/jasmine.d.ts#7de6c3dd94feaeb21f20054b9f30d5dabc5efabd",
    "jquery": "github:DefinitelyTyped/DefinitelyTyped/jquery/jquery.d.ts#470954c4f427e0805a2d633636a7c6aa7170def8"
  }
}
